/Users/youssefgr/Desktop/Atelier_GL/zAgl_Bis/TP_7_BIS/t-dsonar-bis/src/main/java/pizzas/Pizza.java
/Users/youssefgr/Desktop/Atelier_GL/zAgl_Bis/TP_7_BIS/t-dsonar-bis/src/main/java/pizzas/Ingredient.java
/Users/youssefgr/Desktop/Atelier_GL/zAgl_Bis/TP_7_BIS/t-dsonar-bis/src/main/java/pizzas/BasePizzas.java
